{
  "project_info": {
    "project_number": "611829581761",
    "firebase_url": "https://bowling-ball-ball-speed.firebaseio.com",
    "project_id": "bowling-ball-ball-speed",
    "storage_bucket": "bowling-ball-ball-speed.appspot.com"
  },
  "client": [
    {
      "client_info": {
        "mobilesdk_app_id": "1:611829581761:android:d9c853bbaa39cc66",
        "android_client_info": {
          "package_name": "evets.neg.ballspeed"
        }
      },
      "oauth_client": [
        {
          "client_id": "611829581761-bftnomm8bm0g5jptfpholv0tum2hv8rd.apps.googleusercontent.com",
          "client_type": 3
        }
      ],
      "api_key": [
        {
          "current_key": "AIzaSyBFBdCFc-tqaUftV86wJo8yvFFksjFfDls"
        }
      ],
      "services": {
        "analytics_service": {
          "status": 1
        },
        "appinvite_service": {
          "status": 1,
          "other_platform_oauth_client": []
        },
        "ads_service": {
          "status": 2
        }
      }
    }
  ],
  "configuration_version": "1"
}